{
    "output_name": "electrons",
    "n_to_save": 10,
    "variables": {
        "floats": [
            "pt",
            "eta",
            "phi",
            "ftag_et",
            "ftag_z0AlongBeamspot",
            "ftag_z0AlongBeamspotSignificance",
            "ftag_ptVarCone30OverPt",
            "ftag_deltaPOverP",
            "deltaEta1",
            "deltaPhiRescaled2",
            "ftag_energyOverP",
            "Rhad",
            "Rhad1",
            "Eratio",
            "weta2",
            "Rphi",
            "Reta",
            "wtots1",
            "f1",
            "f3"
        ],
        "customs": [
            "ptfrac",
            "ptrel",
            "dr"
        ],
        "ints": [
            "ftagTruthOriginLabel",
            "ftagTruthVertexIndex",
            "ftagTruthTypeLabel",
            "ftagTruthSourceLabel"
        ]
    },
    "input_name": "electrons",
    "associations": {
        "track": {
            "variables": {
                "customs": [
                    "numberOfSCTHitsInclDead",
                    "d0RelativeToBeamspot",
                    "d0RelativeToBeamspotSignificance",
                    "abs_eta"
                ],
                "uchars": [
                    "numberOfPixelHits"
                ],
                "floats": [
                    "eProbabilityHT",
                    "qOverP"
                ]
            },
            "edm_names": {
                "ip_prefix": "btagIp_"
            }
        }
    }
}